ahb_apb_bridge.vcd
$date
    May  4, 2023  16:30:45
$end
$version
    TOOL:	xmsim(64)	20.03-s007
$end
$timescale
    1 ns
$end

$scope module ahb_apb_bridge_top $end
$var parameter 32 !    time_period $end
$var reg       1 "    clock $end

$scope module AHB_INF $end
$var wire      1 #    clock  $end
$var reg       1 $    HRESETn $end
$var reg      32 %    HADDR [31:0] $end
$var reg       2 &    HTRANS [1:0] $end
$var reg       1 '    HWRITE $end
$var reg      32 (    HWDATA [31:0] $end
$var reg       1 )    HSELAHB $end
$var reg      32 *    HRDATA [31:0] $end
$var reg       1 +    HREADY $end
$var reg       1 ,    HRESP $end

$scope clocking ahb_driver_cb $end
$var reg       1 -    HRESETn $end
$var reg      32 .    HADDR [31:0] $end
$var reg       2 /    HTRANS [1:0] $end
$var reg       1 0    HWRITE $end
$var reg      32 1    HWDATA [31:0] $end
$var reg       1 2    HSELAHB $end
$var reg       1 3    HREADY $end
$upscope $end


$scope clocking ahb_monitor_cb $end
$var reg       1 4    HRESETn $end
$var reg      32 5    HADDR [31:0] $end
$var reg       2 6    HTRANS [1:0] $end
$var reg       1 7    HWRITE $end
$var reg      32 8    HWDATA [31:0] $end
$var reg       1 9    HSELAHB $end
$var reg      32 :    HRDATA [31:0] $end
$var reg       1 ;    HREADY $end
$var reg       1 <    HRESP $end
$upscope $end

$upscope $end


$scope module APB_INF $end
$var wire      1 =    clock  $end
$var reg      32 >    PRDATA[7] [31:0] $end
$var reg      32 ?    PRDATA[6] [31:0] $end
$var reg      32 @    PRDATA[5] [31:0] $end
$var reg      32 A    PRDATA[4] [31:0] $end
$var reg      32 B    PRDATA[3] [31:0] $end
$var reg      32 C    PRDATA[2] [31:0] $end
$var reg      32 D    PRDATA[1] [31:0] $end
$var reg      32 E    PRDATA[0] [31:0] $end
$var reg       8 F    PSLVERR [7:0] $end
$var reg       8 G    PREADY [7:0] $end
$var reg      32 H    PWDATA [31:0] $end
$var reg       1 I    PENABLE $end
$var reg       8 J    PSELx [7:0] $end
$var reg      32 K    PADDR [31:0] $end
$var reg       1 L    PWRITE $end

$scope clocking apb_driver_cb $end
$var reg       8 M    PSLVERR [7:0] $end
$var reg       8 N    PREADY [7:0] $end
$upscope $end


$scope clocking apb_monitor_cb $end
$var reg       8 O    PSLVERR [7:0] $end
$var reg       8 P    PREADY [7:0] $end
$var reg      32 Q    PWDATA [31:0] $end
$var reg       1 R    PENABLE $end
$var reg       8 S    PSELx [7:0] $end
$var reg      32 T    PADDR [31:0] $end
$var reg       1 U    PWRITE $end
$upscope $end

$upscope $end


$scope module DUT $end
$var parameter 32 V    NO_OF_SLAVES $end
$var parameter 32 W    ADDR_WIDTH $end
$var parameter 32 X    DATA_WIDTH $end
$var parameter 32 Y    SLAVE_START_ADDR_0 $end
$var parameter 32 Z    SLAVE_END_ADDR_0 $end
$var parameter 32 [    SLAVE_START_ADDR_1 $end
$var parameter 32 \    SLAVE_END_ADDR_1 $end
$var parameter 32 ]    SLAVE_START_ADDR_2 $end
$var parameter 32 ^    SLAVE_END_ADDR_2 $end
$var parameter 32 _    SLAVE_START_ADDR_3 $end
$var parameter 32 `    SLAVE_END_ADDR_3 $end
$var parameter 32 a    SLAVE_START_ADDR_4 $end
$var parameter 32 b    SLAVE_END_ADDR_4 $end
$var parameter 32 c    SLAVE_START_ADDR_5 $end
$var parameter 32 d    SLAVE_END_ADDR_5 $end
$var parameter 32 e    SLAVE_START_ADDR_6 $end
$var parameter 32 f    SLAVE_END_ADDR_6 $end
$var parameter 32 g    SLAVE_START_ADDR_7 $end
$var parameter 32 h    SLAVE_END_ADDR_7 $end
$var wire      1 i    HCLK  $end
$var wire      1 j    HRESETn  $end
$var wire     32 k    HADDR [31:0] $end
$var wire      2 l    HTRANS [1:0] $end
$var wire      1 m    HWRITE  $end
$var wire     32 n    HWDATA [31:0] $end
$var wire      1 o    HSELAHB  $end
$var reg      32 p    HRDATA [31:0] $end
$var reg       1 q    HREADY $end
$var reg       1 r    HRESP $end
$var wire     32 s    PRDATA[7] [31:0] $end
$var wire     32 t    PRDATA[6] [31:0] $end
$var wire     32 u    PRDATA[5] [31:0] $end
$var wire     32 v    PRDATA[4] [31:0] $end
$var wire     32 w    PRDATA[3] [31:0] $end
$var wire     32 x    PRDATA[2] [31:0] $end
$var wire     32 y    PRDATA[1] [31:0] $end
$var wire     32 z    PRDATA[0] [31:0] $end
$var wire      8 {    PSLVERR [7:0] $end
$var wire      8 |    PREADY [7:0] $end
$var reg      32 }    PWDATA [31:0] $end
$var reg       1 ~    PENABLE $end
$var reg       8 !!   PSELx [7:0] $end
$var reg      32 "!   PADDR [31:0] $end
$var reg       1 #!   PWRITE $end
$var reg      32 $!   HADDR_Temp [31:0] $end
$var reg      32 %!   HADDR_Temp2 [31:0] $end
$var reg      32 &!   HWDATA_Temp [31:0] $end
$var reg       8 '!   PSELx_Temp [7:0] $end
$var reg       8 (!   PSELx_Curr [7:0] $end
$var reg       3 )!   Slave_number [2:0] $end
$var reg      32 *!   current_state [31:0] $end
$var reg      32 +!   next_state [31:0] $end
$var reg       1 ,!   valid $end
$var reg       1 -!   HWRITE_Reg $end
$upscope $end

$upscope $end


$scope module ahb_apb_bridge_pkg $end
$var integer  32 .!   number_of_transactions $end
$upscope $end


$scope module uvm_pkg $end
$var parameter 32 /!   UVM_HDL_MAX_WIDTH $end
$var parameter 328 0!   uvm_mgc_copyright $end
$var parameter 336 1!   uvm_cdn_copyright $end
$var parameter 224 2!   uvm_snps_copyright $end
$var parameter 328 3!   uvm_cy_copyright $end
$var parameter 256 4!   uvm_nv_copyright $end
$var parameter 56 5!   uvm_revision $end
$var reg       1 6!   uvm_start_uvm_declarations $end
$var parameter 32 7!   UVM_STREAMBITS $end
$var parameter 32 8!   UVM_RADIX $end
$var parameter 32 9!   UVM_MACRO_NUMFLAGS $end
$var parameter 32 :!   UVM_DEFAULT $end
$var parameter 32 ;!   UVM_ALL_ON $end
$var parameter 32 <!   UVM_FLAGS_ON $end
$var parameter 32 =!   UVM_FLAGS_OFF $end
$var parameter 32 >!   UVM_COPY $end
$var parameter 32 ?!   UVM_NOCOPY $end
$var parameter 32 @!   UVM_COMPARE $end
$var parameter 32 A!   UVM_NOCOMPARE $end
$var parameter 32 B!   UVM_PRINT $end
$var parameter 32 C!   UVM_NOPRINT $end
$var parameter 32 D!   UVM_RECORD $end
$var parameter 32 E!   UVM_NORECORD $end
$var parameter 32 F!   UVM_PACK $end
$var parameter 32 G!   UVM_NOPACK $end
$var parameter 32 H!   UVM_PHYSICAL $end
$var parameter 32 I!   UVM_ABSTRACT $end
$var parameter 32 J!   UVM_READONLY $end
$var parameter 32 K!   UVM_NODEFPRINT $end
$var parameter 32 L!   UVM_MACRO_EXTRAS $end
$var parameter 32 M!   UVM_FLAGS $end
$var parameter 32 N!   UVM_UNPACK $end
$var parameter 32 O!   UVM_CHECK_FIELDS $end
$var parameter 32 P!   UVM_END_DATA_EXTRA $end
$var parameter 32 Q!   UVM_START_FUNCS $end
$var parameter 32 R!   UVM_SET $end
$var parameter 32 S!   UVM_SETINT $end
$var parameter 32 T!   UVM_SETOBJ $end
$var parameter 32 U!   UVM_SETSTR $end
$var parameter 32 V!   UVM_END_FUNCS $end
$var integer  32 W!   uvm_global_random_seed $end
$var parameter 32 X!   UVM_STR_CRC_POLYNOMIAL $end
$var parameter 32 Y!   UVM_STDOUT $end
$var parameter 32 Z!   UVM_LINE_WIDTH $end
$var parameter 32 [!   UVM_NUM_LINES $end
$var parameter 32 \!   UVM_SMALL_STRING $end
$var parameter 32 ]!   UVM_LARGE_STRING $end
$var integer  32 ^!   UVM_UNBOUNDED_CONNECTIONS $end

$scope function uvm_hdl_check_path $end
$var integer  32 _!   uvm_hdl_check_path $end
$upscope $end


$scope function uvm_hdl_deposit $end
$var integer  32 `!   uvm_hdl_deposit $end
$var reg      1024 a!   value [1023:0] $end
$upscope $end


$scope function uvm_hdl_force $end
$var integer  32 b!   uvm_hdl_force $end
$var reg      1024 c!   value [1023:0] $end
$upscope $end


$scope task uvm_hdl_force_time $end
$var reg      1024 d!   value [1023:0] $end
$var time     64 e!   force_time $end
$upscope $end


$scope function uvm_hdl_release_and_read $end
$var integer  32 f!   uvm_hdl_release_and_read $end
$var reg      1024 g!   value [1023:0] $end
$upscope $end


$scope function uvm_hdl_release $end
$var integer  32 h!   uvm_hdl_release $end
$upscope $end


$scope function uvm_hdl_read $end
$var integer  32 i!   uvm_hdl_read $end
$var reg      1024 j!   value [1023:0] $end
$upscope $end


$scope function uvm_dpi_get_next_arg_c $end
$var integer  32 k!   init $end
$upscope $end


$scope function uvm_dpi_get_next_arg $end
$var integer  32 l!   init $end
$upscope $end


$scope function uvm_dpi_regexec $end
$var integer  32 m!   uvm_dpi_regexec $end
$upscope $end


$scope function uvm_re_match $end
$var integer  32 n!   uvm_re_match $end
$upscope $end


$scope function uvm_radix_to_string $end
$var reg      32 o!   radix [31:0] $end
$upscope $end


$scope function uvm_instance_scope $end
$var reg       8 p!   c [7:0] $end
$var integer  32 q!   pos $end
$upscope $end


$scope function uvm_oneway_hash $end
$var integer  32 r!   uvm_oneway_hash $end
$var integer  32 s!   seed $end
$var reg       1 t!   msb $end
$var reg       8 u!   current_byte [7:0] $end
$var reg      32 v!   crc1 [31:0] $end
$upscope $end


$scope function uvm_create_random_seed $end
$var integer  32 w!   uvm_create_random_seed $end
$upscope $end


$scope function uvm_leaf_scope $end
$var reg       8 x!   scope_separator [7:0] $end
$var reg       8 y!   bracket_match [7:0] $end
$var integer  32 z!   pos $end
$var integer  32 {!   bmatches $end
$upscope $end


$scope function uvm_bitstream_to_string $end
$var reg      4096 |!   value [4095:0] $end
$var integer  32 }!   size $end
$var reg      32 ~!   radix [31:0] $end

$scope begin unmblk1 $end
$var reg      4096 !"   _t [4095:0] $end
$upscope $end

$upscope $end


$scope function uvm_integral_to_string $end
$var reg      64 ""   value [63:0] $end
$var integer  32 #"   size $end
$var reg      32 $"   radix [31:0] $end

$scope begin unmblk1 $end
$var reg      64 %"   _t [63:0] $end
$upscope $end

$upscope $end


$scope function uvm_vector_to_string $end
$var reg      4096 &"   value [4095:0] $end
$var integer  32 '"   size $end
$var reg      32 ("   radix [31:0] $end
$upscope $end


$scope function uvm_get_array_index_int $end
$var integer  32 )"   uvm_get_array_index_int $end
$var reg       1 *"   is_wildcard $end
$var integer  32 +"   i $end
$upscope $end


$scope function uvm_get_array_index_string $end
$var reg       1 ,"   is_wildcard $end
$var integer  32 -"   i $end
$upscope $end


$scope function uvm_is_array $end
$var reg       1 ."   uvm_is_array $end
$upscope $end


$scope task set_global_timeout $end
$var time     64 /"   timeout $end
$var reg       1 0"   overridable $end
$upscope $end


$scope task set_global_stop_timeout $end
$var time     64 1"   timeout $end
$upscope $end


$scope function uvm_report_enabled $end
$var integer  32 2"   uvm_report_enabled $end
$var integer  32 3"   verbosity $end
$var reg       2 4"   severity [1:0] $end
$upscope $end


$scope task uvm_report $end
$var reg       2 5"   severity [1:0] $end
$var integer  32 6"   verbosity $end
$var integer  32 7"   line $end
$var reg       1 8"   report_enabled_checked $end
$upscope $end


$scope task m__uvm_report_dpi $end
$var integer  32 9"   severity $end
$var integer  32 :"   verbosity $end
$var integer  32 ;"   line $end
$upscope $end


$scope task uvm_report_info $end
$var integer  32 <"   verbosity $end
$var integer  32 ="   line $end
$var reg       1 >"   report_enabled_checked $end
$upscope $end


$scope task uvm_report_warning $end
$var integer  32 ?"   verbosity $end
$var integer  32 @"   line $end
$var reg       1 A"   report_enabled_checked $end
$upscope $end


$scope task uvm_report_error $end
$var integer  32 B"   verbosity $end
$var integer  32 C"   line $end
$var reg       1 D"   report_enabled_checked $end
$upscope $end


$scope task uvm_report_fatal $end
$var integer  32 E"   verbosity $end
$var integer  32 F"   line $end
$var reg       1 G"   report_enabled_checked $end
$upscope $end


$scope function uvm_string_to_severity $end
$var reg       1 H"   uvm_string_to_severity $end
$var reg       2 I"   sev [1:0] $end
$upscope $end


$scope task set_config_int $end
$var reg      4096 J"   value [4095:0] $end
$upscope $end


$scope task set_config_object $end
$var reg       1 K"   clone $end
$upscope $end


$scope function uvm_is_match $end
$var reg       1 L"   uvm_is_match $end
$upscope $end


$scope task uvm_wait_for_nba_region $end
$var integer  32 M"   nba $end
$var integer  32 N"   next_nba $end
$upscope $end

$upscope $end

$enddefinitions $end
$dumpvars
b11100000111111111 ]!
b1110111111 \!
b1111000 [!
b1111000 Z!
b1 Y!
b100110000010001110110110110 X!
b100000000000001000 V!
b100000000000001000 U!
b100000000000000111 T!
b100000000000000110 S!
b100000000000000110 R!
b100000000000000101 Q!
b100000000000000100 P!
b100000000000000011 O!
b100000000000000010 N!
b100000000000000001 M!
b100000000000000000 L!
b10000000000000000 K!
b1000000000000000 J!
b100000000000000 I!
b10000000000000 H!
b1000000000 G!
b100000000 F!
b10000000 E!
b1000000 D!
b100000 C!
b10000 B!
b1000 A!
b100 @!
b10 ?!
b1 >!
b0 =!
b101010101 <!
b101010101 ;!
b10101010101 :!
b10001 9!
b1111000000000000000000000000 8!
b1000000000000 7!
b1100000000000000000000000000011000 5!
b1100000000000000000000000000100000000000000000000000000000000001000000000000000000000000000000001100000000000000000000000000011000000000000000000000000000000001000000000000000000000000000000001100000000000000000000000000010111 4!
b1100000000000000000000000000100000000000000000000000000000000001000000000000000000000000000000001100000000000000000000000000011000000000000000000000000000000001000000000000000000000000000000001100000000000000000000000000010111000000000000000000000000000001000000000000000000000000000000001100000000000000000000000000010110 3!
b10111000000000000000000000000000001000000000000000000000000000000001100000000000000000000000000010110000000000000000000000000000001000000000000000000000000000000001100000000000000000000000000010101 2!
b1100000000000000000000000000010111000000000000000000000000000001000000000000000000000000000000001100000000000000000000000000010110000000000000000000000000000001000000000000000000000000000000001100000000000000000000000000010101000000000000000000000000000001000000000000000000000000000000001100000000000000000000000000010100 1!
b1100000000000000000000000000010110000000000000000000000000000001000000000000000000000000000000001100000000000000000000000000010101000000000000000000000000000001000000000000000000000000000000001100000000000000000000000000010100000000000000000000000000000001000000000000000000000000000000001100000000000000000000000000010011 0!
b10000000000 /!
b11111111111 h
b11100000000 g
b11011111111 f
b11000000000 e
b10111111111 d
b10100000000 c
b10011111111 b
b10000000000 a
b1111111111 `
b1100000000 _
b1011111111 ^
b1000000000 ]
b111111111 \
b100000000 [
b11111111 Z
b0 Y
b100000 X
b100000 W
b1000 V
b1010 !
0"
0#
x$
bx %
bx &
x'
bx (
x)
bx *
x+
1,
x-
bx .
bx /
x0
bx 1
x2
x3
x4
bx 5
bx 6
x7
bx 8
x9
bx :
x;
x<
0=
bx >
bx ?
bx @
bx A
bx B
bx C
bx D
bx E
bx F
bx G
bx H
xI
bx J
bx K
xL
bx M
bx N
bx O
bx P
bx Q
xR
bx S
bx T
xU
0i
xj
bx k
bx l
xm
bx n
xo
bx p
xq
1r
bx s
bx t
bx u
bx v
bx w
bx x
bx y
bx z
bx {
bx |
bx }
x~
bx !!
bx "!
x#!
bx $!
bx %!
bx &!
bx '!
bx (!
bx )!
b0 *!
b0 +!
0,!
x-!
b1111101000 .!
16!
b11110110010111010111010010010111 W!
b11111111111111111111111111111111 ^!
b0 _!
b0 `!
bx a!
b0 b!
bx c!
bx d!
bx e!
b0 f!
bx g!
b0 h!
b0 i!
bx j!
b0 k!
b0 l!
b0 m!
b0 n!
b0 o!
b111010 p!
b1000 q!
b11000000100000111011111100111111 r!
b11110110010111010111010010010111 s!
1t!
b1110001 u!
b1010111101101011101100100110101 v!
b1101110000110111110110111111 w!
b101110 x!
b0 y!
b110000 z!
b11111111111111111111111111111111 {!
bx |!
b0 }!
b0 ~!
bx !"
b1 ""
b100000 #"
b10000000000000000000000000 $"
bx %"
bx &"
b0 '"
b0 ("
b0 )"
0*"
b0 +"
0,"
b0 -"
0."
bx /"
00"
bx 1"
b0 2"
b111110100 3"
b0 4"
b0 5"
b0 6"
b0 7"
08"
b0 9"
b0 :"
b0 ;"
b0 <"
b0 ="
0>"
b0 ?"
b0 @"
0A"
b0 B"
b0 C"
0D"
b0 E"
b0 F"
0G"
0H"
b0 I"
bx J"
0K"
0L"
b100101 M"
b100101 N"
$end
#5
1"
1i
1=
1#
b0 !!
0~
1q
b1 (!
b0 )!
b100110 N"
1<
b11000000100000111011111101000010 w!
b11000000100000111011111101000101 w!
1+
0I
b0 J
b100110 M"
#6
b100000111000101000010010110000 E
b11010100001110100101110001000100 D
b10101001001111101001110101010101 C
b1011011001101111111110001011000 B
b1010100111101110000011111100111 A
b1000010100100100011111001010011 @
b10110001011011111101000110010000 ?
b1110011010101000110000101110010 >
b0 F
b0 M
b11111111 G
b11111111 N
b11111111 |
b0 {
b1110011010101000110000101110010 s
b10110001011011111101000110010000 t
b1000010100100100011111001010011 u
b1010100111101110000011111100111 v
b1011011001101111111110001011000 w
b10101001001111101001110101010101 x
b11010100001110100101110001000100 y
b100000111000101000010010110000 z
#10
0"
0i
0=
0#
0r
0,
#15
1"
1i
1=
1#
b100111 N"
b0 O
b11111111 P
0R
b0 S
1;
0<
13
b11000000100000111011111101001001 w!
b11000000100000111011111101001110 w!
b101000 N"
b10110111111111111000010010010110 w!
b10110111111111111000010010011001 w!
b101000 M"
#16
b101010110000000111111111011010 E
b1011010100000110101110010110 D
b10010001110000001100001111000111 C
b1101010010110011100110110011011 B
b111101110000001010101011000 A
b10100010010110001110011100101010 @
b111101100001010001010101101100 ?
b111100001101000000101001000101 >
0$
0-
b11111111111 %
b11111111111 .
b0 &
b0 /
0'
00
1)
12
1o
0m
b0 l
b11111111111 k
0j
b111100001101000000101001000101 s
b111101100001010001010101101100 t
b10100010010110001110011100101010 u
b111101110000001010101011000 v
b1101010010110011100110110011011 w
b10010001110000001100001111000111 x
b1011010100000110101110010110 y
b101010110000000111111111011010 z
#20
0"
0i
0=
0#
#25
1"
1i
1=
1#
b101001 N"
b101010 N"
04
b11111111111 5
b0 6
07
19
b11000000100000111011111101010100 w!
b11000000100000111011111101011011 w!
b10110111111111111000010010011101 w!
b10110111111111111000010010100010 w!
b101010 M"
#26
b11010110000111001101110110001100 E
b1101110011110000010000011000101 D
b1100111011101111101010111000111 C
b11111001100000100011001001000 B
b1111100101011010010110110001000 A
b11101000010110000001011100010100 @
b10100000000100011100001011000101 ?
b1110010100100110110110101011011 >
1$
1-
b10011100001 %
b10011100001 .
b10 &
b10 /
b10 l
b10011100001 k
1j
b1110010100100110110110101011011 s
b10100000000100011100001011000101 t
b11101000010110000001011100010100 u
b1111100101011010010110110001000 v
b11111001100000100011001001000 w
b1100111011101111101010111000111 x
b1101110011110000010000011000101 y
b11010110000111001101110110001100 z
#30
0"
0i
0=
0#
1,!
#35
1"
1i
1=
1#
b10011100001 $!
b10000 (!
b100 )!
b101011 N"
b101100 N"
14
b10011100001 5
b10 6
b11000000100000111011111101100011 w!
b11000000100000111011111101101100 w!
b10110111111111111000010010101000 w!
b10110111111111111000010010101111 w!
b1 +!
b101100 M"
#36
b100010111101111001110111000111 E
b11111101101100010111101111001111 D
b101010011000111101001101010110 C
b1111001101110110110011001011111 B
b10110011110101100101000001111001 A
b10100100011111100111000010000 @
b11011001000101011101100110011010 ?
b10110011100101000101010110011 >
b1001111001 %
b1001111001 .
b1001111001 k
b10110011100101000101010110011 s
b11011001000101011101100110011010 t
b10100100011111100111000010000 u
b10110011110101100101000001111001 v
b1111001101110110110011001011111 w
b101010011000111101001101010110 x
b11111101101100010111101111001111 y
b100010111101111001110111000111 z
#40
0"
0i
0=
0#
b1 *!
#45
1"
1i
1=
1#
b10000 !!
b10011100001 "!
0#!
b1 (!
b0 )!
b10000 (!
b100 )!
b101101 N"
b101110 N"
b1001111001 5
b11000000100000111011111101110110 w!
b11000000100000111011111110000001 w!
b10110111111111111000010010110111 w!
b10110111111111111000010011000000 w!
0L
b10011100001 K
b10000 J
b111 +!
b101110 M"
#46
b10001010100001100000010001001 E
b10111000111111000111110010110101 D
b11011010100001001011110001110010 C
b1111001111110110010110111011110 B
b10101101001100110111111000101010 A
b100111000000000000110000011111 @
b11101000100100010101100111101101 ?
b100111110100010110001001001101 >
b11000110 %
b11000110 .
b11000110 k
b100111110100010110001001001101 s
b11101000100100010101100111101101 t
b100111000000000000110000011111 u
b10101101001100110111111000101010 v
b1111001111110110010110111011110 w
b11011010100001001011110001110010 x
b10111000111111000111110010110101 y
b10001010100001100000010001001 z
#50
0"
0i
0=
0#
b111 *!
#55
1"
1i
1=
1#
1~
b10101101001100110111111000101010 p
b11000110 $!
b1 (!
b0 )!
b101111 N"
b10000 S
b10011100001 T
0U
b110000 N"
b11000110 5
b11000000100000111011111110001101 w!
b11000000100000111011111110011010 w!
b10110111111111111000010011001010 w!
b10110111111111111000010011010101 w!
b10101101001100110111111000101010 *
1I
b1 +!
b110000 M"
#56
b10100001001010000100010111010011 E
b10100000010110010010001101110111 D
b1110111110110101001000100011101 C
b11111111011111001110011000111 B
b1101000110001001011011010011100 A
b11111101010001101000101000000 @
b11001110100001000100001110111101 ?
b10100110101011111111010000101011 >
b11111001000 %
b11111001000 .
b11111001000 k
b10100110101011111111010000101011 s
b11001110100001000100001110111101 t
b11111101010001101000101000000 u
b1101000110001001011011010011100 v
b11111111011111001110011000111 w
b1110111110110101001000100011101 x
b10100000010110010010001101110111 y
b10100001001010000100010111010011 z
#60
0"
0i
0=
0#
b1 *!
#65
1"
1i
1=
1#
b1 !!
b11000110 "!
0~
b110001 N"
1R
b110010 N"
b11111001000 5
b10101101001100110111111000101010 :
b11000000100000111011111110101000 w!
b11000000100000111011111110110111 w!
b10110111111111111000010011100001 w!
b10110111111111111000010011101110 w!
0I
b11000110 K
b1 J
b111 +!
b110010 M"
#66
b11010010011111100010110110100101 E
b10110011110001110111000000010101 D
b10011001010101000101010111 C
b1101011100110001011001100011010 B
b11100110100010011111100111001101 A
b11111110100010100001110101110011 @
b10001010111011101001011100001001 ?
b10010011000011100100000001001010 >
b11101111111 %
b11101111111 .
b11101111111 k
b10010011000011100100000001001010 s
b10001010111011101001011100001001 t
b11111110100010100001110101110011 u
b11100110100010011111100111001101 v
b1101011100110001011001100011010 w
b10011001010101000101010111 x
b10110011110001110111000000010101 y
b11010010011111100010110110100101 z
#70
0"
0i
0=
0#
b111 *!
#75
1"
1i
1=
1#
1~
b11010010011111100010110110100101 p
b11101111111 $!
b10000000 (!
b111 )!
b110011 N"
0R
b1 S
b11000110 T
b110100 N"
b11101111111 5
b11000000100000111011111111000111 w!
b11000000100000111011111111011000 w!
b10110111111111111000010011111100 w!
b10110111111111111000010100001011 w!
b11010010011111100010110110100101 *
1I
b1 +!
b110100 M"
#76
b10100101010100100111011111111111 E
b11110011010001110110001010001110 D
b1111010001001001111110100011110 C
b1011100111101100111000011010110 B
b100110100000110100011110111111 A
b11000011101000111111000010111001 @
b11101110100000101001111010011 ?
b11101100111011000100011010101101 >
b11111101100 %
b11111101100 .
b11111101100 k
b11101100111011000100011010101101 s
b11101110100000101001111010011 t
b11000011101000111111000010111001 u
b100110100000110100011110111111 v
b1011100111101100111000011010110 w
b1111010001001001111110100011110 x
b11110011010001110110001010001110 y
b10100101010100100111011111111111 z
#80
0"
0i
0=
0#
b1 *!
#85
1"
1i
1=
1#
b10000000 !!
b11101111111 "!
0~
b1 (!
b0 )!
b10000000 (!
b111 )!
b110101 N"
1R
b110110 N"
b11111101100 5
b11010010011111100010110110100101 :
b11000000100000111011111111101010 w!
b11000000100000111011111111111101 w!
b10110111111111111000010100011011 w!
b10110111111111111000010100101100 w!
0I
b11101111111 K
b10000000 J
b111 +!
b110110 M"
#86
b11001101001010010010011100001 E
b1011110110110001111101011100011 D
b11011111000110011001010001110100 C
b11110100000010001101010111111011 B
b101000101100001010000001110010 A
b1101110111101100100101100010010 @
b10000111001010010111101000011001 ?
b10110100010010100000011101010001 >
b100001101 %
b100001101 .
b100001101 k
b10110100010010100000011101010001 s
b10000111001010010111101000011001 t
b1101110111101100100101100010010 u
b101000101100001010000001110010 v
b11110100000010001101010111111011 w
b11011111000110011001010001110100 x
b1011110110110001111101011100011 y
b11001101001010010010011100001 z
#90
0"
0i
0=
0#
b111 *!
#95
1"
1i
1=
1#
1~
b10110100010010100000011101010001 p
b100001101 $!
b1 (!
b0 )!
b10 (!
b1 )!
b110111 N"
0R
b10000000 S
b11101111111 T
b111000 N"
b100001101 5
b11000000100000111100000000010001 w!
b11000000100000111100000000100110 w!
b10110111111111111000010100111110 w!
b10110111111111111000010101010001 w!
b10110100010010100000011101010001 *
1I
b1 +!
b111000 M"
#96
b101111011101100011010001001100 E
b11110110011111000011100100010100 D
b110001010000110001011101011000 C
b110000110011111110001010001001 B
b11101101000100100000001111100100 A
b100000010010110001111101 @
b11000110111110100000100111011100 ?
b11101001001001111000001000111001 >
b1011100100 %
b1011100100 .
b1011100100 k
b11101001001001111000001000111001 s
b11000110111110100000100111011100 t
b100000010010110001111101 u
b11101101000100100000001111100100 v
b110000110011111110001010001001 w
b110001010000110001011101011000 x
b11110110011111000011100100010100 y
b101111011101100011010001001100 z
#100
0"
0i
0=
0#
b1 *!
#105
1"
1i
1=
1#
b10 !!
b100001101 "!
0~
b1 (!
b0 )!
b10 (!
b1 )!
b111001 N"
1R
b111010 N"
b1011100100 5
b10110100010010100000011101010001 :
b11000000100000111100000000111100 w!
b11000000100000111100000001010011 w!
b10110111111111111000010101100101 w!
b10110111111111111000010101111010 w!
0I
b100001101 K
b10 J
b111 +!
b111010 M"
#106
b11100110110001011010011000111110 E
b10111010001100010001110100100001 D
b1110000101000011000010111001011 C
b10011010010111001011010000001 B
b1110011101001110111001000010111 A
b1111000010001001001010011111011 @
b11011101010000100000001100011100 ?
b10001011100001001011011101100010 >
b10101110000 %
b10101110000 .
b10101110000 k
b10001011100001001011011101100010 s
b11011101010000100000001100011100 t
b1111000010001001001010011111011 u
b1110011101001110111001000010111 v
b10011010010111001011010000001 w
b1110000101000011000010111001011 x
b10111010001100010001110100100001 y
b11100110110001011010011000111110 z
#110
0"
0i
0=
0#
b111 *!
#115
1"
1i
1=
1#
1~
b10111010001100010001110100100001 p
b10101110000 $!
b1 (!
b0 )!
b100000 (!
b101 )!
b111011 N"
0R
b10 S
b100001101 T
b111100 N"
b10101110000 5
b11000000100000111100000001101011 w!
b11000000100000111100000010000100 w!
b10110111111111111000010110010000 w!
b10110111111111111000010110100111 w!
b10111010001100010001110100100001 *
1I
b1 +!
b111100 M"
#116
b111111100100110111101010111000 E
b10101001111101111010011100001010 D
b10011101001101001101111111001100 C
b10011011011110111111000111100010 B
b10111100011100001110101100001010 A
b11010110010000001000010010001011 @
b11001010000000010110010111011001 ?
b10011011011000011010011011001111 >
b10110001 %
b10110001 .
b10110001 k
b10011011011000011010011011001111 s
b11001010000000010110010111011001 t
b11010110010000001000010010001011 u
b10111100011100001110101100001010 v
b10011011011110111111000111100010 w
b10011101001101001101111111001100 x
b10101001111101111010011100001010 y
b111111100100110111101010111000 z
#120
0"
0i
0=
0#
b1 *!
#125
1"
1i
1=
1#
b100000 !!
b10101110000 "!
0~
b1 (!
b0 )!
b100000 (!
b101 )!
b111101 N"
1R
b111110 N"
b10110001 5
b10111010001100010001110100100001 :
b11000000100000111100000010011110 w!
b11000000100000111100000010111001 w!
b10110111111111111000010110111111 w!
b10110111111111111000010111011000 w!
0I
b10101110000 K
b100000 J
b111 +!
b111110 M"
#126
b111001110111111011000110111010 E
b11000101110011111101011011001110 D
b10110110111111010010010101011011 C
b11001001011000001111010010101101 B
b11000111011011100110111010111101 A
b11010011101001111101100101110 @
b10001101001110000011001000010011 ?
b11000101111100101000001111110 >
b10010101000 %
b10010101000 .
b10010101000 k
b11000101111100101000001111110 s
b10001101001110000011001000010011 t
b11010011101001111101100101110 u
b11000111011011100110111010111101 v
b11001001011000001111010010101101 w
b10110110111111010010010101011011 x
b11000101110011111101011011001110 y
b111001110111111011000110111010 z
#130
0"
0i
0=
0#
b111 *!
#135
1"
1i
1=
1#
1~
b11010011101001111101100101110 p
b10010101000 $!
b1 (!
b0 )!
b10000 (!
b100 )!
b111111 N"
0R
b100000 S
b10101110000 T
b1000000 N"
b10010101000 5
b11000000100000111100000011010101 w!
b11000000100000111100000011110010 w!
b10110111111111111000010111110010 w!
b10110111111111111000011000001101 w!
b11010011101001111101100101110 *
1I
b1 +!
b1000000 M"
#136
b11010101101010100100101101000101 E
b1101101110011010110001101110 D
b10111101111110100101011001111000 C
b10011100111110101001111011100001 B
b10010100100111111111110100110001 A
b1000100111000011111100011100011 @
b100110111001100110011111001001 ?
b11100110101011010001101111 >
b101010100 %
b101010100 .
b101010100 k
b11100110101011010001101111 s
b100110111001100110011111001001 t
b1000100111000011111100011100011 u
b10010100100111111111110100110001 v
b10011100111110101001111011100001 w
b10111101111110100101011001111000 x
b1101101110011010110001101110 y
b11010101101010100100101101000101 z
#140
0"
0i
0=
0#
b1 *!
#145
1"
1i
1=
1#
b10000 !!
b10010101000 "!
0~
b1 (!
b0 )!
b10000 (!
b100 )!
b1000001 N"
1R
b1000010 N"
b101010100 5
b11010011101001111101100101110 :
b11000000100000111100000100010000 w!
b11000000100000111100000100101111 w!
b10110111111111111000011000101001 w!
b10110111111111111000011001000110 w!
0I
b10010101000 K
b10000 J
b111 +!
b1000010 M"
